// Jest Snapshot v1, https://goo.gl/fbAQLP

exports[`Login Render Login 1`] = `
<v-container-stub tag="div">
  <v-row-stub tag="div" nogutters="true" justify="center" class="mb-6">
    <v-col-stub cols="6" tag="div">
      <v-container-stub tag="div" fill-height="">
        <v-layout-stub tag="div" align-center="">
          <v-flex-stub tag="div" text-xs-center="">
            <h1 class="white--text">

            </h1>
          </v-flex-stub>
        </v-layout-stub>
      </v-container-stub>
    </v-col-stub>
  </v-row-stub>
  <v-row-stub tag="div" nogutters="true" justify="center" class="mb-6">
    <v-col-stub cols="6" tag="div">
      <v-form-stub id="nativeForm">
        <v-text-field-stub dark="true" errorcount="1" errormessages="" messages="" rules="[Function],[Function]" successmessages="" value="" backgroundcolor="" loaderheight="2" clearicon="$clear" type="text" autocomplete="off" name="email"></v-text-field-stub>
        <v-text-field-stub dark="true" errorcount="1" errormessages="" messages="" rules="[Function],[Function]" successmessages="" value="" backgroundcolor="" loaderheight="2" clearicon="$clear" type="password" name="password"></v-text-field-stub>
        <v-btn-stub color="secondary" outlined="true" tag="button" activeclass="" disabled="true" type="button">

        </v-btn-stub>
      </v-form-stub>
    </v-col-stub>
    <!---->
  </v-row-stub>
</v-container-stub>
`;
